NOAA Buoy 41010 — Air vs. Water Temperature
…
combi <- combined_data1 %>%
  mutate(Year = as.numeric(Year))

combined_data1 %>%
  group_by(Year) %>%
  summarise(
    air_temp_NA_count   = sum(is.na(ATMP)),
    water_temp_NA_count = sum(is.na(WTMP)),
    total_rows          = n()
  ) %>%
  arrange(desc(air_temp_NA_count), desc(water_temp_NA_count))

# A tibble: 38 × 4
    Year air_temp_NA_count water_temp_NA_count total_rows
   <dbl>             <int>               <int>      <int>
 1  2017              4325                2902      24599
 2  2022              1935                 301      52473
 3  2002              1001                  28       8734
 4  2021               618               19016      51516
 5  1998               458                 504      15552
 6  2001               435                 558       8741
 7  1997               305                 317      15840
 8  1999               274                 307      12849
 9  2020               229               22595      52167
10  1996               151                 163      17685
# ℹ 28 more rows
…
